…
```r
## pretvori list-u u data_frame
# pre_iaaf <- pre_iaaf[[1]] ## također moguće
# library(tidyverse) ## A++već učitano
pre_iaaf <- 
  pre_iaaf %>%
  bind_rows() %>%
  as_tibble()
pre_iaaf
```

```
## # A tibble: 21 x 5
##     Time Athlete            Nationality    `Location of races`   Date           
##    <dbl> <chr>              <chr>          <chr>                 <chr>          
##  1  10.8 Luther Cary        United States  Paris, France         July 4, 1891   
##  2  10.8 Cecil Lee          United Kingdom Brussels, Belgium     September 25, ~
##  3  10.8 Étienne De Ré      Belgium        Brussels, Belgium     August 4, 1893 
##  4  10.8 L. Atcherley       United Kingdom Frankfurt/Main, Germ~ April 13, 1895 
##  5  10.8 Harry Beaton       United Kingdom Rotterdam, Netherlan~ August 28, 1895
##  6  10.8 Harald Anderson-A~ Sweden         Helsingborg, Sweden   August 9, 1896 
##  7  10.8 Isaac Westergren   Sweden         Gävle, Sweden         September 11, ~
##  8  10.8 10.8               Sweden         Gävle, Sweden         September 10, ~
##  9  10.8 Frank Jarvis       United States  Paris, France         July 14, 1900  
## 10  10.8 Walter Tewksbury   United States  Paris, France         July 14, 1900  
## # ... with 11 more rows
```

Sada je potrebno urediti nazive varijabli (kolona)...ovdje koristimo `janitor::clean_names()` funkciju, koja je napravljena isključivo za tu namjenu. (Q: Na koji drugi način se to može učiniti?)


```r
# library(janitor) ## učitano
pre_iaaf <-
  pre_iaaf %>%
  clean_names()
pre_iaaf
```

```
## # A tibble: 21 x 5
##     time athlete            nationality    location_of_races     date           
##    <dbl> <chr>              <chr>          <chr>                 <chr>          
##  1  10.8 Luther Cary        United States  Paris, France         July 4, 1891   
##  2  10.8 Cecil Lee          United Kingdom Brussels, Belgium     September 25, ~
##  3  10.8 Étienne De Ré      Belgium        Brussels, Belgium     August 4, 1893 
##  4  10.8 L. Atcherley       United Kingdom Frankfurt/Main, Germ~ April 13, 1895 
##  5  10.8 Harry Beaton       United Kingdom Rotterdam, Netherlan~ August 28, 1895
##  6  10.8 Harald Anderson-A~ Sweden         Helsingborg, Sweden   August 9, 1896 
##  7  10.8 Isaac Westergren   Sweden         Gävle, Sweden         September 11, ~
##  8  10.8 10.8               Sweden         Gävle, Sweden         September 10, ~
##  9  10.8 Frank Jarvis       United States  Paris, France         July 14, 1900  
## 10  10.8 Walter Tewksbury   United States  Paris, France         July 14, 1900  
## # ... with 11 more rows
```
…
Na kraju je potrebno urediti "date" varijablu tako da R može prepoznati string vrijednosti kao datum.


```r
# library(lubridate) ## već učitano
pre_iaaf <-
  pre_iaaf %>%
  mutate(date = mdy(date))
pre_iaaf
```

```
## # A tibble: 21 x 5
##     time athlete               nationality    location_of_races       date      
##    <dbl> <chr>                 <chr>          <chr>                   <date>    
##  1  10.8 Luther Cary           United States  Paris, France           1891-07-04
##  2  10.8 Cecil Lee             United Kingdom Brussels, Belgium       1892-09-25
##  3  10.8 Étienne De Ré         Belgium        Brussels, Belgium       1893-08-04
##  4  10.8 L. Atcherley          United Kingdom Frankfurt/Main, Germany 1895-04-13
##  5  10.8 Harry Beaton          United Kingdom Rotterdam, Netherlands  1895-08-28
##  6  10.8 Harald Anderson-Arbin Sweden         Helsingborg, Sweden     1896-08-09
##  7  10.8 Isaac Westergren      Sweden         Gävle, Sweden           1898-09-11
##  8  10.8 Isaac Westergren      Sweden         Gävle, Sweden           1899-09-10
##  9  10.8 Frank Jarvis          United States  Paris, France           1900-07-14
## 10  10.8 Walter Tewksbury      United States  Paris, France           1900-07-14
## # ... with 11 more rows
```
…
Problem ćemo riješiti tako da vrijednosti popunimo sa prethohdnim realizacijama (lag-ovima). Prvo je potrebno isprobati:


```r
iaaf_76 %>%
  mutate(date = ifelse(is.na(date), lag(date), date))
```

```
## # A tibble: 54 x 8
##     time wind   auto athlete      nationality   location_of_race      date ref  
##    <dbl> <chr> <dbl> <chr>        <chr>         <chr>                <dbl> <chr>
##  1  10.6 ""     NA   Donald Lipp~ United States Stockholm, Sweden   -20998 [2]  
##  2  10.6 ""     NA   Jackson Sch~ United States Stockholm, Sweden   -18004 [2]  
##  3  10.4 ""     NA   Charley Pad~ United States Redlands, USA       -17785 [2]  
##  4  10.4 "0.0"  NA   Eddie Tolan  United States Stockholm, Sweden   -14756 [2]  
##  5  10.4 ""     NA   Eddie Tolan  United States Copenhagen, Denmark -14739 [2]  
##  6  10.3 ""     NA   Percy Willi~ Canada        Toronto, Ontario, ~ -14390 [2]  
##  7  10.3 "0.4"  10.4 Eddie Tolan  United States Los Angeles, USA    -13667 [2]  
##  8  10.3 ""     NA   Eddie Tolan  Ralph Metcal~ Budapest, Hungary   -13291 [2]  
##  9  10.3 ""     NA   Eddie Tolan  Eulace Peaco~ Oslo, Norway        -12932 [2]  
## 10  10.3 ""     NA   Chris Berger Netherlands   Amsterdam, Netherl~ -12912 [2]  
## # ... with 44 more rows
```

Izgleda da su datumi postali numerička varijabla (brojevi). Razlog je korištenje (probajte pronaći na Google) base R funkcije `ifelse()`. U ovom će slučaju biti bolja tidyverse ekvivalentna funkcija, i.e. `if_else()`.


```r
iaaf_76 <-
  iaaf_76 %>%
  mutate(date = if_else(is.na(date), lag(date), date))
iaaf_76
```

```
## # A tibble: 54 x 8
##     time wind   auto athlete    nationality  location_of_race   date       ref  
##    <dbl> <chr> <dbl> <chr>      <chr>        <chr>              <date>     <chr>
##  1  10.6 ""     NA   Donald Li~ United Stat~ Stockholm, Sweden  1912-07-06 [2]  
##  2  10.6 ""     NA   Jackson S~ United Stat~ Stockholm, Sweden  1920-09-16 [2]  
##  3  10.4 ""     NA   Charley P~ United Stat~ Redlands, USA      1921-04-23 [2]  
##  4  10.4 "0.0"  NA   Eddie Tol~ United Stat~ Stockholm, Sweden  1929-08-08 [2]  
##  5  10.4 ""     NA   Eddie Tol~ United Stat~ Copenhagen, Denma~ 1929-08-25 [2]  
##  6  10.3 ""     NA   Percy Wil~ Canada       Toronto, Ontario,~ 1930-08-09 [2]  
##  7  10.3 "0.4"  10.4 Eddie Tol~ United Stat~ Los Angeles, USA   1932-08-01 [2]  
##  8  10.3 ""     NA   Eddie Tol~ Ralph Metca~ Budapest, Hungary  1933-08-12 [2]  
##  9  10.3 ""     NA   Eddie Tol~ Eulace Peac~ Oslo, Norway       1934-08-06 [2]  
## 10  10.3 ""     NA   Chris Ber~ Netherlands  Amsterdam, Nether~ 1934-08-26 [2]  
## # ... with 44 more rows
```
…
Povežimo odvojena razdoblja u jedan data frame. Ponovno ćemo koristiti funkciju `dplyr:: bind_rows()` i zadržati samo zajedničke varijable. Također ćemo dodati varijablu (kolonu) koja se refeira na razdoblje za koje su zabilježeni rezultati. 


```r
wr100 <- 
  bind_rows(
    pre_iaaf %>% select(time, athlete, nationality:date) %>% mutate(era = "IAAF"),
    iaaf_76 %>% select(time, athlete, nationality:date) %>% mutate(era = "Pred-automatska"),
    iaaf %>% select(time, athlete, nationality:date) %>% mutate(era = "Moderna")
  )
wr100
```

```
## # A tibble: 99 x 7
##     time athlete  nationality location_of_rac~ date       era   location_of_race
##    <dbl> <chr>    <chr>       <chr>            <date>     <chr> <chr>           
##  1  10.8 Luther ~ United Sta~ Paris, France    1891-07-04 IAAF  <NA>            
##  2  10.8 Cecil L~ United Kin~ Brussels, Belgi~ 1892-09-25 IAAF  <NA>            
##  3  10.8 Étienne~ Belgium     Brussels, Belgi~ 1893-08-04 IAAF  <NA>            
##  4  10.8 L. Atch~ United Kin~ Frankfurt/Main,~ 1895-04-13 IAAF  <NA>            
##  5  10.8 Harry B~ United Kin~ Rotterdam, Neth~ 1895-08-28 IAAF  <NA>            
##  6  10.8 Harald ~ Sweden      Helsingborg, Sw~ 1896-08-09 IAAF  <NA>            
##  7  10.8 Isaac W~ Sweden      Gävle, Sweden    1898-09-11 IAAF  <NA>            
##  8  10.8 Isaac W~ Sweden      Gävle, Sweden    1899-09-10 IAAF  <NA>            
##  9  10.8 Frank J~ United Sta~ Paris, France    1900-07-14 IAAF  <NA>            
## 10  10.8 Walter ~ United Sta~ Paris, France    1900-07-14 IAAF  <NA>            
## # ... with 89 more rows
```
…
