…
```r
# library(jsonlite) ## već učitano
nyc_trees <- 
  fromJSON("https://data.cityofnewyork.us/resource/nwxe-4ae8.json") %>%
  as_tibble()
nyc_trees
```

```
## # A tibble: 1,000 x 45
##    tree_id block_id created_at tree_dbh stump_diam curb_loc status health
##    <chr>   <chr>    <chr>      <chr>    <chr>      <chr>    <chr>  <chr> 
##  1 180683  348711   2015-08-2~ 3        0          OnCurb   Alive  Fair  
##  2 200540  315986   2015-09-0~ 21       0          OnCurb   Alive  Fair  
##  3 204026  218365   2015-09-0~ 3        0          OnCurb   Alive  Good  
##  4 204337  217969   2015-09-0~ 10       0          OnCurb   Alive  Good  
##  5 189565  223043   2015-08-3~ 21       0          OnCurb   Alive  Good  
##  6 190422  106099   2015-08-3~ 11       0          OnCurb   Alive  Good  
##  7 190426  106099   2015-08-3~ 11       0          OnCurb   Alive  Good  
##  8 208649  103940   2015-09-0~ 9        0          OnCurb   Alive  Good  
##  9 209610  407443   2015-09-0~ 6        0          OnCurb   Alive  Good  
## 10 192755  207508   2015-08-3~ 21       0          OffsetF~ Alive  Fair  
## # ... with 990 more rows, and 37 more variables: spc_latin <chr>,
## #   spc_common <chr>, steward <chr>, guards <chr>, sidewalk <chr>,
## #   user_type <chr>, problems <chr>, root_stone <chr>, root_grate <chr>,
## #   root_other <chr>, trunk_wire <chr>, trnk_light <chr>, trnk_other <chr>,
## #   brch_light <chr>, brch_shoe <chr>, brch_other <chr>, address <chr>,
## #   zipcode <chr>, zip_city <chr>, cb_num <chr>, borocode <chr>,
## #   boroname <chr>, cncldist <chr>, st_assem <chr>, st_senate <chr>, nta <chr>,
## #   nta_name <chr>, boro_ct <chr>, state <chr>, latitude <chr>,
## #   longitude <chr>, x_sp <chr>, y_sp <chr>, council_district <chr>,
…
```r
fred <-
  fred %>% 
  httr::content("text") %>%
  jsonlite::fromJSON() %>%
  purrr::pluck("observations") %>% ## izvuci"$observations" element iz liste
  # .$observations %>% ## Alternativno...
  # magrittr::extract("observations") %>% ## Alternativno...
  as_tibble() ## Zbog formatiranja
fred
```

```
## # A tibble: 91 x 4
##    realtime_start realtime_end date       value   
##    <chr>          <chr>        <chr>      <chr>   
##  1 2020-11-11     2020-11-11   1929-01-01 1120.076
##  2 2020-11-11     2020-11-11   1930-01-01 1025.091
##  3 2020-11-11     2020-11-11   1931-01-01 958.378 
##  4 2020-11-11     2020-11-11   1932-01-01 834.291 
##  5 2020-11-11     2020-11-11   1933-01-01 823.156 
##  6 2020-11-11     2020-11-11   1934-01-01 911.019 
##  7 2020-11-11     2020-11-11   1935-01-01 992.537 
##  8 2020-11-11     2020-11-11   1936-01-01 1118.944
##  9 2020-11-11     2020-11-11   1937-01-01 1177.572
## 10 2020-11-11     2020-11-11   1938-01-01 1138.989
## # ... with 81 more rows
```
…
