…
### Prikupljanje podataka u lokalni radni prostor R

Najčešće je potrebno iterirati kroz podatke nekoliko puta prije nego uistinu shvatimo točno koji dio podataka želimo povući sa baze. Nakon što smo identificirali podskup podatka koji nas zanima, **`collect()`** funkcija će biti korisna za povlaćenje podataka u lokalni data frame. U ovom primjeru ćemo pripisati podatke objektu `tailnum_delay`. To radimo jer želimo *query* objekt `tailnum_delay_db` držati odvojeno kako bismo kasnije mogli lakše razumjeti principe (prijevode) SQL jezika. 


```r
tailnum_delay <- 
  tailnum_delay_db %>% 
  collect()
tailnum_delay
```

```
## # A tibble: 1,201 x 4
##    tailnum mean_dep_delay mean_arr_delay     n
##    <chr>            <dbl>          <dbl> <int>
##  1 N11119            32.6           30.3   148
##  2 N16919            32.4           29.9   251
##  3 N14998            29.4           27.9   230
##  4 N15910            29.3           27.6   280
##  5 N13123            29.6           26.0   121
##  6 N11192            27.5           25.9   154
##  7 N14950            26.2           25.3   219
##  8 N21130            27.0           25.0   126
##  9 N24128            24.8           24.9   129
## 10 N22971            26.5           24.7   230
## # ... with 1,191 more rows
```
…
Provjerimo koliko najveće ribolovne nacije eksploatiraju ribni fond prema kriteriju sati provedenih u ribolovu. Kao što je vidljivo, Kina je dominatni globalni igrač:


```r
effort %>%
  group_by(flag) %>%
  summarise(total_fishing_hours = sum(fishing_hours, na.rm=T)) %>%
  arrange(desc(total_fishing_hours)) %>%
  collect()
```

```
## # A tibble: 126 x 2
##    flag  total_fishing_hours
##    <chr>               <dbl>
##  1 CHN             57711389.
##  2 ESP              8806223.
##  3 ITA              6790417.
##  4 FRA              6122613.
##  5 RUS              5660001.
##  6 KOR              5585248.
##  7 TWN              5337054.
##  8 GBR              4383738.
##  9 JPN              4347252.
## 10 NOR              4128516.
## # ... with 116 more rows
```
…
```
## # A tibble: 121 x 2
##    flag  total_fishing_hours
##    <chr>               <dbl>
##  1 CHN             16882037.
##  2 TWN              2227341.
##  3 ESP              2133990.
##  4 ITA              2103310.
##  5 FRA              1525454.
##  6 JPN              1404751.
##  7 RUS              1313683.
##  8 GBR              1248220.
##  9 USA              1235116.
## 10 KOR              1108384.
## # ... with 111 more rows
```
…
