…
Sada kada su potrebni paketi učitani, pogledajmo `starwars` podatke (*već korišteni u prethodnim predavanjima*) koje ćemo koristiti u svrhu demonstracije modela:


```r
starwars
```

```
## # A tibble: 87 x 14
##    name  height  mass hair_color skin_color eye_color birth_year sex   gender
##    <chr>  <int> <dbl> <chr>      <chr>      <chr>          <dbl> <chr> <chr> 
##  1 Luke~    172    77 blond      fair       blue            19   male  mascu~
##  2 C-3PO    167    75 <NA>       gold       yellow         112   none  mascu~
##  3 R2-D2     96    32 <NA>       white, bl~ red             33   none  mascu~
##  4 Dart~    202   136 none       white      yellow          41.9 male  mascu~
##  5 Leia~    150    49 brown      light      brown           19   fema~ femin~
##  6 Owen~    178   120 brown, gr~ light      blue            52   male  mascu~
##  7 Beru~    165    75 brown      light      blue            47   fema~ femin~
##  8 R5-D4     97    32 <NA>       white, red red             NA   none  mascu~
##  9 Bigg~    183    84 black      light      brown           24   male  mascu~
## 10 Obi-~    182    77 auburn, w~ fair       blue-gray       57   male  mascu~
## # ... with 77 more rows, and 5 more variables: homeworld <chr>, species <chr>,
## #   films <list>, vehicles <list>, starships <list>
```
…
Za demonstraciju principa u ovom poglavlju je potrebno *subset-ati* starwars podatke tako da uključuju samo ljudsku vrstu. Zbog toga ćemo napraviti novi podatkovni skup,a dodatno ćemo još i napraviti novu (faktorsku) varijablu "spol" ("gender") jer je važno pokazati kako R tretira faktorske varijable:


```r
humans = 
  starwars %>% 
  filter(species=="Human") %>%
  mutate(gender_factored = as.factor(gender)) %>% ## faktorska verzija varijable "gender"
  select(contains("gender"), everything())
humans
```

```
## # A tibble: 35 x 15
##    gender gender_factored name  height  mass hair_color skin_color eye_color
##    <chr>  <fct>           <chr>  <int> <dbl> <chr>      <chr>      <chr>    
##  1 mascu~ masculine       Luke~    172    77 blond      fair       blue     
##  2 mascu~ masculine       Dart~    202   136 none       white      yellow   
##  3 femin~ feminine        Leia~    150    49 brown      light      brown    
##  4 mascu~ masculine       Owen~    178   120 brown, gr~ light      blue     
##  5 femin~ feminine        Beru~    165    75 brown      light      blue     
##  6 mascu~ masculine       Bigg~    183    84 black      light      brown    
##  7 mascu~ masculine       Obi-~    182    77 auburn, w~ fair       blue-gray
##  8 mascu~ masculine       Anak~    188    84 blond      fair       blue     
##  9 mascu~ masculine       Wilh~    180    NA auburn, g~ fair       blue     
## 10 mascu~ masculine       Han ~    180    80 brown      fair       brown    
## # ... with 25 more rows, and 7 more variables: birth_year <dbl>, sex <chr>,
## #   homeworld <chr>, species <chr>, films <list>, vehicles <list>,
## #   starships <list>
```
…
